…
common_words %>%
  select(word, `High price`, `Low price`, min_prop) %>%
  slice_max(min_prop, n = 75)
```

    ## # A tibble: 75 × 4
    ##    word        `High price` `Low price` min_prop
    ##    <chr>              <dbl>       <dbl>    <dbl>
    ##  1 montreal         0.0184      0.0163   0.0163 
    ##  2 apartment        0.0160      0.0158   0.0158 
    ##  3 located          0.0135      0.0159   0.0135 
    ##  4 downtown         0.0105      0.0104   0.0104 
    ##  5 bedroom          0.0106      0.00927  0.00927
    ##  6 kitchen          0.00909     0.00896  0.00896
    ##  7 restaurants      0.00861     0.00860  0.00860
    ##  8 metro            0.00831     0.0136   0.00831
    ##  9 enjoy            0.00898     0.00809  0.00809
    ## 10 stay             0.00888     0.00744  0.00744
    ## # ℹ 65 more rows
…
``` r
airbnb_stop <- common_words %>%
  filter(min_prop >= 0.002) %>%
  arrange(desc(min_prop))

# Display removed words with their proportions in both groups
airbnb_stop %>%
  select(word, `High price`, `Low price`, min_prop)
```

    ## # A tibble: 78 × 4
    ##    word        `High price` `Low price` min_prop
    ##    <chr>              <dbl>       <dbl>    <dbl>
    ##  1 montreal         0.0184      0.0163   0.0163 
    ##  2 apartment        0.0160      0.0158   0.0158 
    ##  3 located          0.0135      0.0159   0.0135 
    ##  4 downtown         0.0105      0.0104   0.0104 
    ##  5 bedroom          0.0106      0.00927  0.00927
    ##  6 kitchen          0.00909     0.00896  0.00896
    ##  7 restaurants      0.00861     0.00860  0.00860
    ##  8 metro            0.00831     0.0136   0.00831
    ##  9 enjoy            0.00898     0.00809  0.00809
    ## 10 stay             0.00888     0.00744  0.00744
    ## # ℹ 68 more rows
…
